code/sc_gv_2D/image.vcd
$date
     Nov 29, 2023       10:32:47
$end

$version
 SystemC 2.3.1-Accellera --- Nov 22 2019 04:57:47
$end

$timescale
     1 ps
$end

$scope module SystemC $end
$var wire    1  aaaaa  HPIXEL       $end
$var wire    1  aaaab  RESET       $end
$var wire    1  aaaac  SH       $end
$var wire    1  aaaad  SV       $end
$var wire    1  aaaae  BLANK       $end
$var wire    8  aaaaf  PIXEL_IN [7:0]  $end
$var wire    8  aaaag  PIXEL_OUT [7:0]  $end
$upscope $end
$enddefinitions  $end

$comment
All initial values are dumped below at time 0 sec = 0 timescale units.
$end

$dumpvars
0aaaaa
0aaaab
1aaaac
1aaaad
0aaaae
b0 aaaaf
b0 aaaag
$end

#10000
1aaaab

#28000
0aaaac

#50000
1aaaaa

#100000
0aaaaa

#150000
1aaaaa

#200000
0aaaaa

#250000
1aaaaa

#300000
0aaaaa

#350000
1aaaaa

#400000
0aaaaa

#450000
1aaaaa

#500000
0aaaaa

#550000
1aaaaa

#600000
0aaaaa

#650000
1aaaaa

#700000
0aaaaa

#728000
1aaaac

#750000
1aaaaa

#800000
0aaaaa

#850000
1aaaaa

#900000
0aaaaa

#950000
1aaaaa

#1000000
0aaaaa

#1050000
1aaaaa

#1100000
0aaaaa

#1150000
1aaaaa

#1200000
0aaaaa

#1250000
1aaaaa

#1300000
0aaaaa

#1350000
1aaaaa

#1400000
0aaaaa

#1450000
1aaaaa

#1500000
0aaaaa

#1550000
1aaaaa

#1600000
0aaaaa

#1650000
1aaaaa

#1700000
0aaaaa

#1750000
1aaaaa

#1800000
0aaaaa

#1850000
1aaaaa

#1900000
0aaaaa

#1950000
1aaaaa

#2000000
0aaaaa

#2050000
1aaaaa

#2100000
0aaaaa

#2150000
1aaaaa

#2200000
0aaaaa

#2250000
1aaaaa

#2300000
0aaaaa

#2350000
1aaaaa

#2400000
0aaaaa

#2450000
1aaaaa

#2500000
0aaaaa

#2550000
1aaaaa

#2600000
0aaaaa

#2650000
1aaaaa

#2700000
0aaaaa

#2750000
1aaaaa

#2800000
0aaaaa

#2850000
1aaaaa

#2900000
0aaaaa

#2950000
1aaaaa

#3000000
0aaaaa

#3050000
1aaaaa

#3100000
0aaaaa

#3150000
1aaaaa

#3200000
0aaaaa

#3250000
1aaaaa

#3300000
0aaaaa

#3350000
1aaaaa

#3400000
0aaaaa

#3450000
1aaaaa

#3500000
0aaaaa

#3550000
1aaaaa

#3600000
0aaaaa

#3650000
1aaaaa

#3700000
0aaaaa

#3750000
1aaaaa

#3800000
0aaaaa

#3850000
1aaaaa

#3900000
0aaaaa

#3950000
1aaaaa

#4000000
0aaaaa

#4050000
1aaaaa

#4100000
0aaaaa

#4150000
1aaaaa

#4200000
0aaaaa

#4250000
1aaaaa

#4300000
0aaaaa

#4350000
1aaaaa

#4400000
0aaaaa

#4450000
1aaaaa

#4500000
0aaaaa

#4550000
1aaaaa

#4600000
0aaaaa

#4650000
1aaaaa

#4700000
0aaaaa

#4750000
1aaaaa

#4800000
0aaaaa

#4850000
1aaaaa

#4900000
0aaaaa

#4950000
1aaaaa

#5000000
0aaaaa

#5050000
1aaaaa

#5100000
0aaaaa

#5150000
1aaaaa

#5200000
0aaaaa

#5250000
1aaaaa

#5300000
0aaaaa

#5350000
1aaaaa

#5400000
0aaaaa

#5450000
1aaaaa

#5500000
0aaaaa

#5550000
1aaaaa

#5600000
0aaaaa

#5650000
1aaaaa

#5700000
0aaaaa

#5750000
1aaaaa

#5800000
0aaaaa

#5850000
1aaaaa

#5900000
0aaaaa

#5950000
1aaaaa

#6000000
0aaaaa

#6050000
1aaaaa

#6100000
0aaaaa

#6150000
1aaaaa

#6200000
0aaaaa

#6250000
1aaaaa

#6300000
0aaaaa

#6350000
1aaaaa

#6400000
0aaaaa

#6450000
1aaaaa

#6500000
0aaaaa

#6550000
1aaaaa

#6600000
0aaaaa

#6650000
1aaaaa

#6700000
0aaaaa

#6750000
1aaaaa

#6800000
0aaaaa

#6850000
1aaaaa

#6900000
0aaaaa

#6950000
1aaaaa

#7000000
0aaaaa

#7050000
1aaaaa

#7100000
0aaaaa

#7150000
1aaaaa

#7200000
0aaaaa

#7250000
1aaaaa

#7300000
0aaaaa

#7350000
1aaaaa

#7400000
0aaaaa

#7450000
1aaaaa

#7500000
0aaaaa

#7550000
1aaaaa

#7600000
0aaaaa

#7650000
1aaaaa

#7700000
0aaaaa

#7750000
1aaaaa

#7800000
0aaaaa

#7850000
1aaaaa

#7900000
0aaaaa

#7950000
1aaaaa

#8000000
0aaaaa

#8050000
1aaaaa

#8100000
0aaaaa

#8150000
1aaaaa

#8200000
0aaaaa

#8250000
1aaaaa

#8300000
0aaaaa

#8350000
1aaaaa

#8400000
0aaaaa

#8450000
1aaaaa

#8500000
0aaaaa

#8550000
1aaaaa

#8600000
0aaaaa

#8650000
1aaaaa

#8700000
0aaaaa

#8750000
1aaaaa

#8800000
0aaaaa

#8850000
1aaaaa

#8900000
0aaaaa

#8950000
1aaaaa

#9000000
0aaaaa

#9050000
1aaaaa

#9100000
0aaaaa

#9150000
1aaaaa

#9200000
0aaaaa

#9250000
1aaaaa

#9300000
0aaaaa

#9350000
1aaaaa

#9400000
0aaaaa

#9450000
1aaaaa

#9500000
0aaaaa

#9550000
1aaaaa

#9600000
0aaaaa

#9650000
1aaaaa

#9700000
0aaaaa

#9750000
1aaaaa

#9800000
0aaaaa

#9850000
1aaaaa

#9900000
0aaaaa

#9950000
1aaaaa

#10000000
0aaaaa

#10050000
1aaaaa

#10100000
0aaaaa

#10150000
1aaaaa

#10200000
0aaaaa

#10250000
1aaaaa

#10300000
0aaaaa

#10350000
1aaaaa

#10400000
0aaaaa

#10450000
1aaaaa

#10500000
0aaaaa

#10550000
1aaaaa

#10600000
0aaaaa

#10650000
1aaaaa

#10700000
0aaaaa

#10750000
1aaaaa

#10800000
0aaaaa

#10850000
1aaaaa

#10900000
0aaaaa

#10950000
1aaaaa

#11000000
0aaaaa

#11050000
1aaaaa

#11100000
0aaaaa

#11150000
1aaaaa

#11200000
0aaaaa

#11250000
1aaaaa

#11300000
0aaaaa

#11350000
1aaaaa

#11400000
0aaaaa

#11450000
1aaaaa

#11500000
0aaaaa

#11550000
1aaaaa

#11600000
0aaaaa

#11650000
1aaaaa

#11700000
0aaaaa

#11750000
1aaaaa

#11800000
0aaaaa

#11850000
1aaaaa

#11900000
0aaaaa

#11950000
1aaaaa

#12000000
0aaaaa

#12050000
1aaaaa

#12100000
0aaaaa

#12150000
1aaaaa

#12200000
0aaaaa

#12250000
1aaaaa

#12300000
0aaaaa

#12350000
1aaaaa

#12400000
0aaaaa

#12450000
1aaaaa

#12500000
0aaaaa

#12550000
1aaaaa

#12600000
0aaaaa

#12650000
1aaaaa

#12700000
0aaaaa

#12750000
1aaaaa

#12800000
0aaaaa

#12850000
1aaaaa

#12900000
0aaaaa

#12950000
1aaaaa

#13000000
0aaaaa

#13050000
1aaaaa

#13100000
0aaaaa

#13150000
1aaaaa

#13200000
0aaaaa

#13250000
1aaaaa

#13300000
0aaaaa

#13350000
1aaaaa

#13400000
0aaaaa

#13450000
1aaaaa

#13500000
0aaaaa

#13550000
1aaaaa

#13600000
0aaaaa

#13650000
1aaaaa

#13700000
0aaaaa

#13750000
1aaaaa

#13800000
0aaaaa

#13850000
1aaaaa

#13900000
0aaaaa

#13950000
1aaaaa

#14000000
0aaaaa

#14050000
1aaaaa

#14100000
0aaaaa

#14150000
1aaaaa

#14200000
0aaaaa

#14250000
1aaaaa

#14300000
0aaaaa

#14350000
1aaaaa

#14400000
0aaaaa

#14450000
1aaaaa

#14500000
0aaaaa

#14550000
1aaaaa

#14600000
0aaaaa

#14650000
1aaaaa

#14700000
0aaaaa

#14750000
1aaaaa

#14800000
0aaaaa

#14850000
1aaaaa

#14900000
0aaaaa

#14950000
1aaaaa

#15000000
0aaaaa

#15050000
1aaaaa

#15100000
0aaaaa

#15150000
1aaaaa

#15200000
0aaaaa

#15250000
1aaaaa

#15300000
0aaaaa

#15350000
1aaaaa

#15400000
0aaaaa

#15450000
1aaaaa

#15500000
0aaaaa

#15550000
1aaaaa

#15600000
0aaaaa

#15650000
1aaaaa

#15700000
0aaaaa

#15750000
1aaaaa

#15800000
0aaaaa

#15850000
1aaaaa

#15900000
0aaaaa

#15950000
1aaaaa

#16000000
0aaaaa

#16050000
1aaaaa

#16100000
0aaaaa

#16150000
1aaaaa

#16200000
0aaaaa

#16250000
1aaaaa

#16300000
0aaaaa

#16350000
1aaaaa

#16400000
0aaaaa

#16450000
1aaaaa

#16500000
0aaaaa

#16550000
1aaaaa

#16600000
0aaaaa

#16650000
1aaaaa

#16700000
0aaaaa

#16750000
1aaaaa

#16800000
0aaaaa

#16850000
1aaaaa

#16900000
0aaaaa

#16950000
1aaaaa

#17000000
0aaaaa

#17050000
1aaaaa

#17100000
0aaaaa

#17150000
1aaaaa

#17200000
0aaaaa

#17250000
1aaaaa

#17300000
0aaaaa

#17350000
1aaaaa

#17400000
0aaaaa

#17450000
1aaaaa

#17500000
0aaaaa

#17550000
1aaaaa

#17600000
0aaaaa

#17650000
1aaaaa

#17700000
0aaaaa

#17750000
1aaaaa

#17800000
0aaaaa

#17850000
1aaaaa

#17900000
0aaaaa

#17950000
1aaaaa

#18000000
0aaaaa

#18050000
1aaaaa

#18100000
0aaaaa

#18150000
1aaaaa

#18200000
0aaaaa

#18250000
1aaaaa

#18300000
0aaaaa

#18350000
1aaaaa

#18400000
0aaaaa

#18450000
1aaaaa

#18500000
0aaaaa

#18550000
1aaaaa

#18600000
0aaaaa

#18650000
1aaaaa

#18700000
0aaaaa

#18750000
1aaaaa

#18800000
0aaaaa

#18850000
1aaaaa

#18900000
0aaaaa

#18950000
1aaaaa

#19000000
0aaaaa

#19050000
1aaaaa

#19100000
0aaaaa

#19150000
1aaaaa

#19200000
0aaaaa

#19250000
1aaaaa

#19300000
0aaaaa

#19350000
1aaaaa

#19400000
0aaaaa

#19450000
1aaaaa

#19500000
0aaaaa

#19550000
1aaaaa

#19600000
0aaaaa

#19650000
1aaaaa

#19700000
0aaaaa

#19750000
1aaaaa

#19800000
0aaaaa

#19850000
1aaaaa

#19900000
0aaaaa

#19950000
1aaaaa

#20000000
0aaaaa

#20050000
1aaaaa

#20100000
0aaaaa

#20150000
1aaaaa

#20200000
0aaaaa

#20250000
1aaaaa

#20300000
0aaaaa

#20350000
1aaaaa

#20400000
0aaaaa

#20450000
1aaaaa

#20500000
0aaaaa

#20550000
1aaaaa

#20600000
0aaaaa

#20650000
1aaaaa

#20700000
0aaaaa

#20750000
1aaaaa

#20800000
0aaaaa

#20850000
1aaaaa

#20900000
0aaaaa

#20950000
1aaaaa

#21000000
0aaaaa

#21050000
1aaaaa

#21100000
0aaaaa

#21150000
1aaaaa

#21200000
0aaaaa

#21250000
1aaaaa

#21300000
0aaaaa

#21350000
1aaaaa

#21400000
0aaaaa

#21450000
1aaaaa

#21500000
0aaaaa

#21550000
1aaaaa

#21600000
0aaaaa

#21650000
1aaaaa

#21700000
0aaaaa

#21750000
1aaaaa

#21800000
0aaaaa

#21850000
1aaaaa

#21900000
0aaaaa

#21950000
1aaaaa

#22000000
0aaaaa

#22050000
1aaaaa

#22100000
0aaaaa

#22150000
1aaaaa

#22200000
0aaaaa

#22250000
1aaaaa

#22300000
0aaaaa

#22350000
1aaaaa

#22400000
0aaaaa

#22450000
1aaaaa

#22500000
0aaaaa

#22550000
1aaaaa

#22600000
0aaaaa

#22650000
1aaaaa

#22700000
0aaaaa

#22750000
1aaaaa

#22800000
0aaaaa

#22850000
1aaaaa

#22900000
0aaaaa

#22950000
1aaaaa

#23000000
0aaaaa

#23050000
1aaaaa

#23100000
0aaaaa

#23150000
1aaaaa

#23200000
0aaaaa

#23250000
1aaaaa

#23300000
0aaaaa

#23350000
1aaaaa

#23400000
0aaaaa

#23450000
1aaaaa

#23500000
0aaaaa

#23550000
1aaaaa

#23600000
0aaaaa

#23650000
1aaaaa

#23700000
0aaaaa

#23750000
1aaaaa

#23800000
0aaaaa

#23850000
1aaaaa

#23900000
0aaaaa

#23950000
1aaaaa

#24000000
0aaaaa

#24050000
1aaaaa

#24100000
0aaaaa

#24150000
1aaaaa

#24200000
0aaaaa

#24250000
1aaaaa

#24300000
0aaaaa

#24350000
1aaaaa

#24400000
0aaaaa

#24450000
1aaaaa

#24500000
0aaaaa

#24550000
1aaaaa

#24600000
0aaaaa

#24650000
1aaaaa

#24700000
0aaaaa

#24750000
1aaaaa

#24800000
0aaaaa

#24850000
1aaaaa

#24900000
0aaaaa

#24950000
1aaaaa

#25000000
0aaaaa

#25050000
1aaaaa

#25100000
0aaaaa

#25150000
1aaaaa

#25200000
0aaaaa

#25250000
1aaaaa

#25300000
0aaaaa

#25350000
1aaaaa

#25400000
0aaaaa

#25450000
1aaaaa

#25500000
0aaaaa

#25550000
1aaaaa

#25600000
0aaaaa

#25650000
1aaaaa

#25700000
0aaaaa

#25750000
1aaaaa

#25800000
0aaaaa

#25850000
1aaaaa

#25900000
0aaaaa

#25950000
1aaaaa

#26000000
0aaaaa

#26050000
1aaaaa

#26100000
0aaaaa

#26150000
1aaaaa

#26200000
0aaaaa

#26250000
1aaaaa

#26300000
0aaaaa

#26350000
1aaaaa

#26400000
0aaaaa

#26450000
1aaaaa

#26500000
0aaaaa

#26550000
1aaaaa

#26600000
0aaaaa

#26650000
1aaaaa

#26700000
0aaaaa

#26750000
1aaaaa

#26800000
0aaaaa

#26850000
1aaaaa

#26900000
0aaaaa

#26950000
1aaaaa

#27000000
0aaaaa

#27050000
1aaaaa

#27100000
0aaaaa

#27150000
1aaaaa

#27200000
0aaaaa

#27250000
1aaaaa

#27300000
0aaaaa

#27350000
1aaaaa

#27400000
0aaaaa
0aaaad

#27428000
0aaaac

#27450000
1aaaaa

#27500000
0aaaaa

#27550000
1aaaaa

#27600000
0aaaaa

#27650000
1aaaaa

#27700000
0aaaaa

#27750000
1aaaaa

#27800000
0aaaaa

#27850000
1aaaaa

#27900000
0aaaaa

#27950000
1aaaaa

#28000000
0aaaaa

#28050000
1aaaaa

#28100000
0aaaaa

#28128000
1aaaac

#28150000
1aaaaa

#28200000
0aaaaa

#28250000
1aaaaa

#28300000
0aaaaa

#28350000
1aaaaa

#28400000
0aaaaa

#28450000
1aaaaa

#28500000
0aaaaa

#28550000
1aaaaa

#28600000
0aaaaa

#28650000
1aaaaa

#28700000
0aaaaa

#28750000
1aaaaa

#28800000
0aaaaa

#28850000
1aaaaa

#28900000
0aaaaa

#28950000
1aaaaa

#29000000
0aaaaa

#29050000
1aaaaa

#29100000
0aaaaa

#29150000
1aaaaa

#29200000
0aaaaa

#29250000
1aaaaa

#29300000
0aaaaa

#29350000
1aaaaa

#29400000
0aaaaa

#29450000
1aaaaa

#29500000
0aaaaa

#29550000
1aaaaa

#29600000
0aaaaa

#29650000
1aaaaa

#29700000
0aaaaa

#29750000
1aaaaa

#29800000
0aaaaa

#29850000
1aaaaa

#29900000
0aaaaa

#29950000
1aaaaa

#30000000
0aaaaa

#30050000
1aaaaa

#30100000
0aaaaa

#30150000
1aaaaa

#30200000
0aaaaa

#30250000
1aaaaa

#30300000
0aaaaa

#30350000
1aaaaa

#30400000
0aaaaa

#30450000
1aaaaa

#30500000
0aaaaa

#30550000
1aaaaa

#30600000
0aaaaa

#30650000
1aaaaa

#30700000
0aaaaa

#30750000
1aaaaa

#30800000
0aaaaa

#30850000
1aaaaa

#30900000
0aaaaa

#30950000
1aaaaa

#31000000
0aaaaa

#31050000
1aaaaa

#31100000
0aaaaa

#31150000
1aaaaa

#31200000
0aaaaa

#31250000
1aaaaa

#31300000
0aaaaa

#31350000
1aaaaa

#31400000
0aaaaa

#31450000
1aaaaa

#31500000
0aaaaa

#31550000
1aaaaa

#31600000
0aaaaa

#31650000
1aaaaa

#31700000
0aaaaa

#31750000
1aaaaa

#31800000
0aaaaa

#31850000
1aaaaa

#31900000
0aaaaa

#31950000
1aaaaa

#32000000
0aaaaa

#32050000
1aaaaa

#32100000
0aaaaa

#32150000
1aaaaa

#32200000
0aaaaa

#32250000
1aaaaa

#32300000
0aaaaa

#32350000
1aaaaa

#32400000
0aaaaa

#32450000
1aaaaa

#32500000
0aaaaa

#32550000
1aaaaa

#32600000
0aaaaa

#32650000
1aaaaa

#32700000
0aaaaa

#32750000
1aaaaa

#32800000
0aaaaa

#32850000
1aaaaa

#32900000
0aaaaa

#32950000
1aaaaa

#33000000
0aaaaa

#33050000
1aaaaa

#33100000
0aaaaa

#33150000
1aaaaa

#33200000
0aaaaa

#33250000
1aaaaa

#33300000
0aaaaa

#33350000
1aaaaa

#33400000
0aaaaa

#33450000
1aaaaa

#33500000
0aaaaa

#33550000
1aaaaa

#33600000
0aaaaa

#33650000
1aaaaa

#33700000
0aaaaa

#33750000
1aaaaa

#33800000
0aaaaa

#33850000
1aaaaa

#33900000
0aaaaa

#33950000
1aaaaa

#34000000
0aaaaa

#34050000
1aaaaa

#34100000
0aaaaa

#34150000
1aaaaa

#34200000
0aaaaa

#34250000
1aaaaa

#34300000
0aaaaa

#34350000
1aaaaa

#34400000
0aaaaa

#34450000
1aaaaa

#34500000
0aaaaa

#34550000
1aaaaa

#34600000
0aaaaa

#34650000
1aaaaa

#34700000
0aaaaa

#34750000
1aaaaa

#34800000
0aaaaa

#34850000
1aaaaa

#34900000
0aaaaa

#34950000
1aaaaa

#35000000
0aaaaa

#35050000
1aaaaa

#35100000
0aaaaa

#35150000
1aaaaa

#35200000
0aaaaa

#35250000
1aaaaa

#35300000
0aaaaa

#35350000
1aaaaa

#35400000
0aaaaa

#35450000
1aaaaa

#35500000
0aaaaa

#35550000
1aaaaa

#35600000
0aaaaa

#35650000
1aaaaa

#35700000
0aaaaa

#35750000
1aaaaa

#35800000
0aaaaa

#35850000
1aaaaa

#35900000
0aaaaa

#35950000
1aaaaa

#36000000
0aaaaa

#36050000
1aaaaa

#36100000
0aaaaa

#36150000
1aaaaa

#36200000
0aaaaa

#36250000
1aaaaa

#36300000
0aaaaa

#36350000
1aaaaa

#36400000
0aaaaa

#36450000
1aaaaa

#36500000
0aaaaa

#36550000
1aaaaa

#36600000
0aaaaa

#36650000
1aaaaa

#36700000
0aaaaa

#36750000
1aaaaa

#36800000
0aaaaa

#36850000
1aaaaa

#36900000
0aaaaa

#36950000
1aaaaa

#37000000
0aaaaa

#37050000
1aaaaa

#37100000
0aaaaa

#37150000
1aaaaa

#37200000
0aaaaa

#37250000
1aaaaa

#37300000
0aaaaa

#37350000
1aaaaa

#37400000
0aaaaa

#37450000
1aaaaa

#37500000
0aaaaa

#37550000
1aaaaa

#37600000
0aaaaa

#37650000
1aaaaa

#37700000
0aaaaa

#37750000
1aaaaa

#37800000
0aaaaa

#37850000
1aaaaa

#37900000
0aaaaa

#37950000
1aaaaa

#38000000
0aaaaa

#38050000
1aaaaa

#38100000
0aaaaa

#38150000
1aaaaa

#38200000
0aaaaa

#38250000
1aaaaa

#38300000
0aaaaa

#38350000
1aaaaa

#38400000
0aaaaa

#38450000
1aaaaa

#38500000
0aaaaa

#38550000
1aaaaa

#38600000
0aaaaa

#38650000
1aaaaa

#38700000
0aaaaa

#38750000
1aaaaa

#38800000
0aaaaa

#38850000
1aaaaa

#38900000
0aaaaa

#38950000
1aaaaa

#39000000
0aaaaa

#39050000
1aaaaa

#39100000
0aaaaa

#39150000
1aaaaa

#39200000
0aaaaa

#39250000
1aaaaa

#39300000
0aaaaa

#39350000
1aaaaa

#39400000
0aaaaa

#39450000
1aaaaa

#39500000
0aaaaa

#39550000
1aaaaa

#39600000
0aaaaa

#39650000
1aaaaa

#39700000
0aaaaa

#39750000
1aaaaa

#39800000
0aaaaa

#39850000
1aaaaa

#39900000
0aaaaa

#39950000
1aaaaa

#40000000
0aaaaa

#40050000
1aaaaa

#40100000
0aaaaa

#40150000
1aaaaa

#40200000
0aaaaa

#40250000
1aaaaa

#40300000
0aaaaa

#40350000
1aaaaa

#40400000
0aaaaa

#40450000
1aaaaa

#40500000
0aaaaa

#40550000
1aaaaa

#40600000
0aaaaa

#40650000
1aaaaa

#40700000
0aaaaa

#40750000
1aaaaa

#40800000
0aaaaa

#40850000
1aaaaa

#40900000
0aaaaa

#40950000
1aaaaa

#41000000
0aaaaa

#41050000
1aaaaa

#41100000
0aaaaa

#41150000
1aaaaa

#41200000
0aaaaa

#41250000
1aaaaa

#41300000
0aaaaa

#41350000
1aaaaa

#41400000
0aaaaa

#41450000
1aaaaa

#41500000
0aaaaa

#41550000
1aaaaa

#41600000
0aaaaa

#41650000
1aaaaa

#41700000
0aaaaa

#41750000
1aaaaa

#41800000
0aaaaa

#41850000
1aaaaa

#41900000
0aaaaa

#41950000
1aaaaa

#42000000
0aaaaa

#42050000
1aaaaa

#42100000
0aaaaa

#42150000
1aaaaa

#42200000
0aaaaa

#42250000
1aaaaa

#42300000
0aaaaa

#42350000
1aaaaa

#42400000
0aaaaa

#42450000
1aaaaa

#42500000
0aaaaa

#42550000
1aaaaa

#42600000
0aaaaa

#42650000
1aaaaa

#42700000
0aaaaa

#42750000
1aaaaa

#42800000
0aaaaa

#42850000
1aaaaa

#42900000
0aaaaa

#42950000
1aaaaa

#43000000
0aaaaa

#43050000
1aaaaa

#43100000
0aaaaa

#43150000
1aaaaa

#43200000
0aaaaa

#43250000
1aaaaa

#43300000
0aaaaa

#43350000
1aaaaa

#43400000
0aaaaa

#43450000
1aaaaa

#43500000
0aaaaa

#43550000
1aaaaa

#43600000
0aaaaa

#43650000
1aaaaa

#43700000
0aaaaa

#43750000
1aaaaa

#43800000
0aaaaa

#43850000
1aaaaa

#43900000
0aaaaa

#43950000
1aaaaa

#44000000
0aaaaa

#44050000
1aaaaa

#44100000
0aaaaa

#44150000
1aaaaa

#44200000
0aaaaa

#44250000
1aaaaa

#44300000
0aaaaa

#44350000
1aaaaa

#44400000
0aaaaa

#44450000
1aaaaa

#44500000
0aaaaa

#44550000
1aaaaa

#44600000
0aaaaa

#44650000
1aaaaa

#44700000
0aaaaa

#44750000
1aaaaa

#44800000
0aaaaa

#44850000
1aaaaa

#44900000
0aaaaa

#44950000
1aaaaa

#45000000
0aaaaa

#45050000
1aaaaa

#45100000
0aaaaa

#45150000
1aaaaa

#45200000
0aaaaa

#45250000
1aaaaa

#45300000
0aaaaa

#45350000
1aaaaa

#45400000
0aaaaa

#45450000
1aaaaa

#45500000
0aaaaa

#45550000
1aaaaa

#45600000
0aaaaa

#45650000
1aaaaa

#45700000
0aaaaa

#45750000
1aaaaa

#45800000
0aaaaa

#45850000
1aaaaa

#45900000
0aaaaa

#45950000
1aaaaa

#46000000
0aaaaa

#46050000
1aaaaa

#46100000
0aaaaa

#46150000
1aaaaa

#46200000
0aaaaa

#46250000
1aaaaa

#46300000
0aaaaa

#46350000
1aaaaa

#46400000
0aaaaa

#46450000
1aaaaa

#46500000
0aaaaa

#46550000
1aaaaa

#46600000
0aaaaa

#46650000
1aaaaa

#46700000
0aaaaa

#46750000
1aaaaa

#46800000
0aaaaa

#46850000
1aaaaa

#46900000
0aaaaa

#46950000
1aaaaa

#47000000
0aaaaa

#47050000
1aaaaa

#47100000
0aaaaa

#47150000
1aaaaa

#47200000
0aaaaa

#47250000
1aaaaa

#47300000
0aaaaa

#47350000
1aaaaa

#47400000
0aaaaa

#47450000
1aaaaa

#47500000
0aaaaa

#47550000
1aaaaa

#47600000
0aaaaa

#47650000
1aaaaa

#47700000
0aaaaa

#47750000
1aaaaa

#47800000
0aaaaa

#47850000
1aaaaa

#47900000
0aaaaa

#47950000
1aaaaa

#48000000
0aaaaa

#48050000
1aaaaa

#48100000
0aaaaa

#48150000
1aaaaa

#48200000
0aaaaa

#48250000
1aaaaa

#48300000
0aaaaa

#48350000
1aaaaa

#48400000
0aaaaa

#48450000
1aaaaa

#48500000
0aaaaa

#48550000
1aaaaa

#48600000
0aaaaa

#48650000
1aaaaa

#48700000
0aaaaa

#48750000
1aaaaa

#48800000
0aaaaa

#48850000
1aaaaa

#48900000
0aaaaa

#48950000
1aaaaa

#49000000
0aaaaa

#49050000
1aaaaa

#49100000
0aaaaa

#49150000
1aaaaa

#49200000
0aaaaa

#49250000
1aaaaa

#49300000
0aaaaa

#49350000
1aaaaa

#49400000
0aaaaa

#49450000
1aaaaa

#49500000
0aaaaa

#49550000
1aaaaa

#49600000
0aaaaa

#49650000
1aaaaa

#49700000
0aaaaa

#49750000
1aaaaa

#49800000
0aaaaa

#49850000
1aaaaa

#49900000
0aaaaa

#49950000
1aaaaa

#50000000
0aaaaa

#50050000
1aaaaa

#50100000
0aaaaa

#50150000
1aaaaa

#50200000
0aaaaa

#50250000
1aaaaa

#50300000
0aaaaa

#50350000
1aaaaa

#50400000
0aaaaa

#50450000
1aaaaa

#50500000
0aaaaa

#50550000
1aaaaa

#50600000
0aaaaa

#50650000
1aaaaa

#50700000
0aaaaa

#50750000
1aaaaa

#50800000
0aaaaa

#50850000
1aaaaa

#50900000
0aaaaa

#50950000
1aaaaa

#51000000
0aaaaa

#51050000
1aaaaa

#51100000
0aaaaa

#51150000
1aaaaa

#51200000
0aaaaa

#51250000
1aaaaa

#51300000
0aaaaa

#51350000
1aaaaa

#51400000
0aaaaa

#51450000
1aaaaa

#51500000
0aaaaa

#51550000
1aaaaa

#51600000
0aaaaa

#51650000
1aaaaa

#51700000
0aaaaa

#51750000
1aaaaa

#51800000
0aaaaa

#51850000
1aaaaa

#51900000
0aaaaa

#51950000
1aaaaa

#52000000
0aaaaa

#52050000
1aaaaa

#52100000
0aaaaa

#52150000
1aaaaa

#52200000
0aaaaa

#52250000
1aaaaa

#52300000
0aaaaa

#52350000
1aaaaa

#52400000
0aaaaa

#52450000
1aaaaa

#52500000
0aaaaa

#52550000
1aaaaa

#52600000
0aaaaa

#52650000
1aaaaa

#52700000
0aaaaa

#52750000
1aaaaa

#52800000
0aaaaa

#52850000
1aaaaa

#52900000
0aaaaa

#52950000
1aaaaa

#53000000
0aaaaa

#53050000
1aaaaa

#53100000
0aaaaa

#53150000
1aaaaa

#53200000
0aaaaa

#53250000
1aaaaa

#53300000
0aaaaa

#53350000
1aaaaa

#53400000
0aaaaa

#53450000
1aaaaa

#53500000
0aaaaa

#53550000
1aaaaa

#53600000
0aaaaa

#53650000
1aaaaa

#53700000
0aaaaa

#53750000
1aaaaa

#53800000
0aaaaa

#53850000
1aaaaa

#53900000
0aaaaa

#53950000
1aaaaa

#54000000
0aaaaa

#54050000
1aaaaa

#54100000
0aaaaa

#54150000
1aaaaa

#54200000
0aaaaa

#54250000
1aaaaa

#54300000
0aaaaa

#54350000
1aaaaa

#54400000
0aaaaa

#54450000
1aaaaa

#54500000
0aaaaa

#54550000
1aaaaa

#54600000
0aaaaa

#54650000
1aaaaa

#54700000
0aaaaa

#54750000
1aaaaa

#54800000
0aaaaa
1aaaad

#54828000
0aaaac

#54850000
1aaaaa

#54900000
0aaaaa

#54950000
1aaaaa

#55000000
0aaaaa

#55050000
1aaaaa

#55100000
0aaaaa

#55150000
1aaaaa

#55200000
0aaaaa

#55250000
1aaaaa

#55300000
0aaaaa

#55350000
1aaaaa

#55400000
0aaaaa

#55450000
1aaaaa

#55500000
0aaaaa

#55528000
1aaaac

#55550000
1aaaaa

#55600000
0aaaaa

#55650000
1aaaaa

#55700000
0aaaaa

#55750000
1aaaaa

#55800000
0aaaaa

#55850000
1aaaaa

#55900000
0aaaaa

#55950000
1aaaaa

#56000000
0aaaaa

#56016000
1aaaae

#56036000
b1 aaaaf

#56050000
1aaaaa

#56100000
0aaaaa

#56150000
1aaaaa
b11111111 aaaag

#56200000
0aaaaa

#56250000
1aaaaa
b11 aaaag

#56300000
0aaaaa

#56350000
1aaaaa
b10 aaaag

#56400000
0aaaaa

#56450000
1aaaaa
b11111111 aaaag

#56500000
0aaaaa

#56550000
1aaaaa

#56600000
0aaaaa

#56650000
1aaaaa

#56700000
0aaaaa

#56750000
1aaaaa

#56800000
0aaaaa

#56850000
1aaaaa

#56900000
0aaaaa

#56950000
1aaaaa

#57000000
0aaaaa

#57050000
1aaaaa

#57100000
0aaaaa

#57150000
1aaaaa

#57200000
0aaaaa

#57250000
1aaaaa

#57300000
0aaaaa

#57350000
1aaaaa

#57400000
0aaaaa

#57450000
1aaaaa

#57500000
0aaaaa

#57550000
1aaaaa

#57600000
0aaaaa

#57650000
1aaaaa

#57700000
0aaaaa

#57750000
1aaaaa
b1000 aaaag

#57800000
0aaaaa

#57850000
1aaaaa
b10 aaaag

#57900000
0aaaaa

#57950000
1aaaaa

#58000000
0aaaaa

#58050000
1aaaaa

#58100000
0aaaaa

#58150000
1aaaaa

#58200000
0aaaaa

#58250000
1aaaaa

#58300000
0aaaaa

#58350000
1aaaaa

#58400000
0aaaaa

#58450000
1aaaaa

#58500000
0aaaaa

#58550000
1aaaaa

#58600000
0aaaaa

#58650000
1aaaaa

#58700000
0aaaaa

#58750000
1aaaaa

#58800000
0aaaaa

#58850000
1aaaaa

#58900000
0aaaaa

#58950000
1aaaaa

#59000000
0aaaaa

#59050000
1aaaaa

#59100000
0aaaaa

#59150000
1aaaaa

#59200000
0aaaaa

#59250000
1aaaaa

#59300000
0aaaaa

#59350000
1aaaaa

#59400000
0aaaaa

#59450000
1aaaaa

#59500000
0aaaaa

#59550000
1aaaaa

#59600000
0aaaaa

#59650000
1aaaaa

#59700000
0aaaaa

#59750000
1aaaaa

#59800000
0aaaaa

#59850000
1aaaaa

#59900000
0aaaaa

#59950000
1aaaaa

#60000000
0aaaaa

#60050000
1aaaaa

#60100000
0aaaaa

#60150000
1aaaaa

#60200000
0aaaaa

#60250000
1aaaaa

#60300000
0aaaaa

#60350000
1aaaaa

